<svg id="0cc63f15-925e-4331-a428-a69703eec4dc" data-name="Layer 1" xmlns="http://www.w3.org/2000/svg" xmlns:xlink="http://www.w3.org/1999/xlink" width="500" height="118.33" viewBox="0 0 500 118.33">
  <defs>
    <linearGradient id="9971e472-71da-431a-9004-95294966b5ad" x1="-4978.57" y1="559.74" x2="-4978.47" y2="559.48" gradientTransform="matrix(234.7, 0, 0, -241.94, 1168486.05, 135450.15)" gradientUnits="userSpaceOnUse">
      <stop offset="0" stop-color="#fff" stop-opacity="0"/>
      <stop offset="1" stop-color="#fff"/>
    </linearGradient>
    <linearGradient id="5342c3bc-dcb4-4d67-93cc-3c4e2d2c147a" x1="-4978.84" y1="559.62" x2="-4979.18" y2="559.4" gradientTransform="matrix(240.68, 0, 0, -287.31, 1198396.43, 160799.32)" gradientUnits="userSpaceOnUse">
      <stop offset="0" stop-color="#fff" stop-opacity="0.5"/>
      <stop offset="1" stop-color="#fff"/>
    </linearGradient>
  </defs>
  <title>logo_white</title>
  <g id="287e3154-0b54-470a-9f93-15c2410ef813" data-name="LogoType">
    <path d="M305.3,36.58A25,25,0,0,0,286,45.66a25,25,0,0,0-44.3,15.95V100h11.51V61.61a13.51,13.51,0,1,1,27,0V100h11.51V61.61a13.51,13.51,0,1,1,27,0V100h11.51V61.61A25.06,25.06,0,0,0,305.3,36.58Z" style="fill: #fff"/>
    <path d="M435.48,48.1V36.58H420.24V19.11H408.73V36.58H398.1V48.1h10.63V74.87h0a25.12,25.12,0,0,0,21.54,24.78l1.59-11.4a13.56,13.56,0,0,1-11.62-13.38h0V48.1h15.24Z" style="fill: #fff"/>
    <path d="M159.18,36.58a25.06,25.06,0,0,0-25,25V100h11.51V61.61A13.53,13.53,0,0,1,159.18,48.1h14V36.58h-14Z" style="fill: #fff"/>
    <path d="M367.34,99.9A31.66,31.66,0,1,1,399,68.24,31.69,31.69,0,0,1,367.34,99.9Zm0-51.8a20.15,20.15,0,1,0,20.15,20.15A20.17,20.17,0,0,0,367.34,48.1Z" style="fill: #fff"/>
    <path d="M222,78.88A20.14,20.14,0,0,1,185.59,74h45.21a5.76,5.76,0,0,0,5.76-5.76,31.65,31.65,0,1,0-4,15.44ZM204.89,48.1a20.18,20.18,0,0,1,19.3,14.39H185.59A20.18,20.18,0,0,1,204.89,48.1Z" style="fill: #fff"/>
    <path d="M482.94,78.88A20.14,20.14,0,0,1,446.54,74h45.21a5.76,5.76,0,0,0,5.76-5.76,31.65,31.65,0,1,0-4,15.44ZM465.84,48.1a20.18,20.18,0,0,1,19.3,14.39H446.54A20.18,20.18,0,0,1,465.84,48.1Z" style="fill: #fff"/>
  </g>
  <g id="cc75e9fc-e9e6-4931-8d2f-0a40edd18759" data-name="UI-Styleguide">
    <g id="9ad5e05c-9b17-4b2d-b2ac-f291dfa07943" data-name="Icon-white">
      <g id="5b6fb8ad-8d32-4a84-86ce-4137878c1f0b" data-name="Group-5">
        <path id="4c0592b0-5470-4570-905a-1f5c961e3e59" data-name="Fill-1" d="M90.41,115.66H7.05a4.56,4.56,0,0,1-4.55-4.57V51.72A31.21,31.21,0,0,1,60.82,36.16c1.08,1.9,3.67,7.86,4.13,8.8h0L65,45q0.41,0.84.78,1.7L81.21,80.36,94.38,109h0a4.51,4.51,0,0,1-4,6.62" style="opacity: 0.649999976158142;isolation: isolate;fill: url(#9971e472-71da-431a-9004-95294966b5ad)"/>
        <path id="f24124fe-b21b-4015-81ed-527538a156a6" data-name="Fill-1" d="M7,2.54A4.53,4.53,0,0,0,2.5,7.08v104A4.51,4.51,0,0,0,7,115.67a4.58,4.58,0,0,0,2.23-.55L71.09,86.46q0.86-.37,1.69-0.78A43.82,43.82,0,0,0,53.71,2.54H7Z" style="fill: url(#5342c3bc-dcb4-4d67-93cc-3c4e2d2c147a)"/>
      </g>
    </g>
  </g>
</svg>
